Wall time,Step,Value
1540057916.526184,0,0.0
1540059422.93322,299,0.02666666731238365
1540063689.272389,599,0.30666667222976685
1540067843.75613,899,0.3466666638851166
1540072125.222221,1199,0.41333332657814026
1540076362.207473,1499,0.5600000023841858
1540080651.652111,1799,0.6000000238418579
1540084904.670222,2099,0.7200000286102295
1540089345.345849,2399,0.6800000071525574
1540093760.666426,2699,0.746666669845581
1540098139.429089,2999,0.746666669845581
1540102523.920595,3299,0.7733333110809326
1540106936.391532,3599,0.8133333325386047
1540111329.398326,3899,0.8399999737739563
1540117840.163793,4199,0.8666666746139526
1540124923.786207,4499,0.8533333539962769
1540136732.183702,4799,0.8799999952316284
1540143176.891797,5099,0.9066666960716248
1540149750.738381,5399,0.9200000166893005
1540156231.199781,5699,0.9333333373069763
1540162770.255784,5999,0.9466666579246521
1540169342.235233,6299,0.9200000166893005
1540175816.070306,6599,0.9466666579246521
1540182352.844091,6899,0.9333333373069763
1540189054.86038,7199,0.9599999785423279
1540195631.667773,7499,0.9333333373069763
1540202237.951931,7799,0.9733333587646484
1540208863.528729,8099,0.9466666579246521
1540215166.031542,8399,0.9333333373069763
1540221588.396533,8699,0.9466666579246521
1540227983.10669,8999,0.9866666793823242
1540238924.503337,9299,0.9733333587646484
1540245112.249084,9599,0.9866666793823242
1540251430.227536,9899,0.9599999785423279
1540257688.928352,10199,0.9733333587646484
1540264098.932138,10499,0.9599999785423279
1540270495.29079,10799,0.9599999785423279
1540276948.799139,11099,0.9466666579246521
1540283362.126153,11399,0.9599999785423279
1540289502.565484,11699,0.9599999785423279
1540294563.201926,11999,0.9733333587646484
1540299801.604013,12299,0.9599999785423279
1540305077.120782,12599,0.9733333587646484
1540310293.815366,12899,0.9733333587646484
1540315517.500743,13199,0.9599999785423279
1540320744.105792,13499,0.9599999785423279
1540329459.246197,13799,0.9599999785423279
1540334771.252187,14099,0.9733333587646484
1540340060.630439,14399,0.9866666793823242
1540345337.896213,14699,0.9866666793823242
1540350623.723524,14999,0.9733333587646484
1540355844.539359,15299,0.9866666793823242
1540361199.910644,15599,0.9866666793823242
1540366457.626822,15899,0.9733333587646484
1540371685.482015,16199,0.9733333587646484
1540376961.801304,16499,0.9866666793823242
1540382003.651166,16799,0.9866666793823242
1540387299.578587,17099,0.9866666793823242
1540392696.839924,17399,0.9733333587646484
1540398070.166008,17699,0.9866666793823242
1540403286.895234,17999,0.9866666793823242
1540412268.148008,18299,0.9733333587646484
1540417524.65078,18599,0.9866666793823242
1540422777.992413,18899,0.9733333587646484
1540428041.784796,19199,0.9866666793823242
1540433196.298436,19499,0.9866666793823242
1540438317.771654,19799,0.9866666793823242
1540443655.486193,20099,0.9733333587646484
1540448925.276192,20399,0.9733333587646484
1540454225.911692,20699,1.0
1540459483.145337,20999,1.0
1540464822.865809,21299,0.9866666793823242
1540470403.461893,21599,1.0
1540477029.577589,21899,0.9866666793823242
1540483487.219011,22199,1.0
1540489939.190289,22499,1.0
1540500528.540226,22799,0.9866666793823242
1540505545.317725,23099,1.0
1540510596.84877,23399,0.9733333587646484
1540515654.635215,23699,0.9866666793823242
1540520764.54397,23999,1.0
1540525812.270886,24299,1.0
1540530907.647381,24599,0.9866666793823242
1540535979.929309,24899,0.9866666793823242
1540541009.279137,25199,1.0
1540546023.13343,25499,1.0
1540550975.266152,25799,1.0
1540556018.289083,26099,1.0
1540561077.69996,26399,1.0
1540566047.798419,26699,1.0
1540571156.941382,26999,1.0
1540579720.867526,27299,1.0
1540584910.55644,27599,1.0
1540589928.621063,27899,1.0
1540594955.634391,28199,1.0
1540599936.600348,28499,1.0
1540604936.522022,28799,1.0
1540610039.258345,29099,1.0
1540615048.364391,29399,1.0
1540620155.492895,29699,1.0
1540625148.225753,29999,1.0
1540630147.940484,30299,1.0
1540635196.002201,30599,1.0
1540640092.114673,30899,1.0
1540645002.229959,31199,1.0
1540649861.902832,31499,1.0
1540657825.162901,31799,1.0
1540662355.066758,32099,1.0
1540666801.913106,32399,1.0
1540671003.982138,32699,1.0
1540675029.463156,32999,1.0
1540679181.844991,33299,1.0
1540683277.288211,33599,1.0
1540687388.753492,33899,1.0
1540691459.437513,34199,1.0
1540695513.031749,34499,1.0
1540699600.325284,34799,1.0
1540703684.583103,35099,1.0
