Wall time,Step,Value
1540229231.639455,0,0.0
1540230042.087636,299,0.0
1540230848.550375,599,0.0
1540231634.960607,899,0.0
1540232483.725625,1199,0.0
1540233294.855014,1499,0.0
1540234100.776036,1799,0.0
1540234918.479147,2099,0.0
1540235724.282343,2399,0.0
1540236537.266402,2699,0.0
1540237364.919765,2999,0.0
1540238200.178777,3299,0.0
1540239022.593519,3599,0.0
1540239849.262091,3899,0.0
1540240691.471754,4199,0.0
1540241512.568231,4499,0.0
1540242958.872216,4799,0.0
1540243809.70133,5099,0.0
1540244686.209537,5399,0.0
1540245574.134787,5699,0.0
1540246456.9713,5999,0.0
1540249576.024587,6299,0.0
1540254279.213372,6599,0.10294117778539658
1540261538.179305,6899,0.3235294222831726
1540269545.462251,7199,0.3529411852359772
1540278125.556695,7499,0.2647058963775635
1540287084.677091,7799,0.3382352888584137
1540295753.520124,8099,0.30882352590560913
1540304671.032493,8399,0.29411765933036804
1540313721.03424,8699,0.3529411852359772
1540322620.685592,8999,0.29411765933036804
1540337131.135589,9299,0.29411765933036804
1540345987.577182,9599,0.3235294222831726
1540354990.237595,9899,0.30882352590560913
1540364046.930937,10199,0.29411765933036804
1540373368.475632,10499,0.38235294818878174
1540382610.77735,10799,0.3235294222831726
1540391861.585627,11099,0.3382352888584137
1540401033.677278,11399,0.3529411852359772
1540410205.024535,11699,0.3382352888584137
1540419440.382081,11999,0.3529411852359772
1540428274.977648,12299,0.36764705181121826
1540437299.531816,12599,0.36764705181121826
1540446246.748203,12899,0.3529411852359772
1540455113.223647,13199,0.38235294818878174
1540463867.515499,13499,0.3529411852359772
1540477267.815058,13799,0.38235294818878174
1540486002.759831,14099,0.3970588147640228
1540494523.549589,14399,0.36764705181121826
1540503632.754478,14699,0.3382352888584137
1540512688.461076,14999,0.3382352888584137
1540522008.695099,15299,0.3970588147640228
1540531579.235721,15599,0.3529411852359772
1540541057.520636,15899,0.3529411852359772
1540550617.225002,16199,0.3529411852359772
1540559203.252051,16499,0.36764705181121826
1540567802.639521,16799,0.38235294818878174
1540576610.611788,17099,0.36764705181121826
1540585189.172972,17399,0.3970588147640228
1540593744.302103,17699,0.3970588147640228
1540602252.363294,17999,0.36764705181121826
1540615574.865565,18299,0.3529411852359772
1540624009.94574,18599,0.38235294818878174
1540632534.800904,18899,0.36764705181121826
1540641224.683561,19199,0.36764705181121826
1540649925.629619,19499,0.3970588147640228
1540658900.60563,19799,0.3970588147640228
1540668457.969695,20099,0.36764705181121826
1540677920.188863,20399,0.38235294818878174
1540687325.078333,20699,0.38235294818878174
1540696966.646608,20999,0.38235294818878174
1540706764.084107,21299,0.4117647111415863
1540716599.518381,21599,0.38235294818878174
1540726520.630272,21899,0.4117647111415863
1540735801.287128,22199,0.3970588147640228
1540744525.706889,22499,0.38235294818878174
1540758385.080817,22799,0.3970588147640228
1540767199.201912,23099,0.3970588147640228
1540776087.227112,23399,0.38235294818878174
1540784534.911862,23699,0.3970588147640228
1540793094.011404,23999,0.36764705181121826
1540801714.257331,24299,0.3970588147640228
1540810207.843019,24599,0.36764705181121826
1540818670.130442,24899,0.3970588147640228
1540827139.451196,25199,0.38235294818878174
1540835482.148476,25499,0.4264705777168274
1540843851.947717,25799,0.36764705181121826
1540852291.578747,26099,0.3970588147640228
1540860668.90839,26399,0.38235294818878174
1540869050.487165,26699,0.4117647111415863
1540877433.623732,26999,0.3970588147640228
