Wall time,Step,Value
1543258570.624951,0,0.0
1543259173.639156,299,0.0
1543259803.770996,599,0.0
1543260391.539777,899,0.0
1543261037.496073,1199,0.0
1543261632.812194,1499,0.0
1543262231.149615,1799,0.0
1543262858.31871,2099,0.0
1543263470.353209,2399,0.0
1543264075.001412,2699,0.0
1543264703.525708,2999,0.0
1543265305.392728,3299,0.0
1543265903.8078,3599,0.0
1543266517.283007,3899,0.0
1543267130.714036,4199,0.0
1543267729.121032,4499,0.0
1543268951.795866,4799,0.0
1543269587.396292,5099,0.0
1543270225.24814,5399,0.0
1543270896.483424,5699,0.0
1543271588.801325,5999,0.0
1543272258.795248,6299,0.0
1543272908.455909,6599,0.0
1543273564.601133,6899,0.0
1543274270.168978,7199,0.0
1543274922.74999,7499,0.0
1543275587.232978,7799,0.0
1543276262.865133,8099,0.0
1543276908.544791,8399,0.0
1543277594.234068,8699,0.0
1543278961.528683,8999,0.014705882407724857
1543285539.856735,9299,0.014705882407724857
1543288158.16959,9599,0.0
1543291387.707158,9899,0.0882352963089943
1543296977.070951,10199,0.10294117778539658
1543302865.132618,10499,0.10294117778539658
1543310594.44732,10799,0.22058823704719543
1543318900.025071,11099,0.2647058963775635
1543327737.458031,11399,0.38235294818878174
1543336963.887461,11699,0.36764705181121826
1543346199.968155,11999,0.36764705181121826
1543355487.789782,12299,0.3382352888584137
1543364966.888217,12599,0.36764705181121826
1543374207.341017,12899,0.3235294222831726
1543382483.380739,13199,0.3235294222831726
1543390201.044731,13499,0.3529411852359772
1543405486.24043,13799,0.3382352888584137
1543412600.515987,14099,0.30882352590560913
1543419838.293809,14399,0.36764705181121826
1543426854.283985,14699,0.30882352590560913
1543433947.481336,14999,0.3529411852359772
1543441073.049242,15299,0.27941176295280457
1543448316.854726,15599,0.38235294818878174
1543455646.485332,15899,0.3382352888584137
1543463175.003274,16199,0.38235294818878174
1543470373.401672,16499,0.3970588147640228
1543477684.006176,16799,0.3970588147640228
1543484931.612271,17099,0.38235294818878174
1543492359.730096,17399,0.45588234066963196
1543499775.878201,17699,0.4117647111415863
1543507417.972718,17999,0.45588234066963196
1543521528.708735,18299,0.44117647409439087
1543529455.809727,18599,0.47058823704719543
1543537112.698523,18899,0.5147058963775635
1543544817.126378,19199,0.4852941036224365
1543552314.149151,19499,0.5
1543559848.958266,19799,0.5735294222831726
1543567276.560036,20099,0.529411792755127
1543574886.33471,20399,0.5441176295280457
1543582450.094983,20699,0.529411792755127
1543590123.117518,20999,0.5588235259056091
1543597937.303169,21299,0.4852941036224365
1543605074.688323,21599,0.5
1543611935.451858,21899,0.5147058963775635
1543618367.563596,22199,0.5588235259056091
1543624847.613321,22499,0.5735294222831726
1543637837.54652,22799,0.5588235259056091
1543644385.687046,23099,0.529411792755127
