Wall time,Step,Value
1543172224.696356,0,0.0
1543174396.049832,299,0.0
1543177225.691418,599,0.11999999731779099
1543180299.36751,899,0.14666666090488434
1543183647.773026,1199,0.1599999964237213
1543187233.913993,1499,0.20000000298023224
1543190424.798074,1799,0.2933333218097687
1543193715.496318,2099,0.2266666740179062
1543196952.976914,2399,0.2266666740179062
1543200313.972008,2699,0.25333333015441895
1543203573.604365,2999,0.20000000298023224
1543206948.632762,3299,0.2266666740179062
1543210294.697659,3599,0.2666666805744171
1543213929.389082,3899,0.2266666740179062
1543217378.51939,4199,0.25333333015441895
1543220562.925782,4499,0.2666666805744171
1543227976.987034,4799,0.25333333015441895
1543231999.619942,5099,0.20000000298023224
1543237314.082962,5399,0.30666667222976685
1543242562.967312,5699,0.2800000011920929
1543247524.081292,5999,0.3866666555404663
1543251933.815568,6299,0.3333333432674408
1543256195.348172,6599,0.3733333349227905
1543260426.95834,6899,0.3866666555404663
1543264660.652959,7199,0.5199999809265137
1543268763.258858,7499,0.4266666769981384
1543272904.77336,7799,0.4933333396911621
1543277040.342244,8099,0.5733333230018616
1543281142.74929,8399,0.54666668176651
1543285281.57536,8699,0.6000000238418579
1543289156.304507,8999,0.6266666650772095
1543298498.57376,9299,0.746666669845581
1543302728.051142,9599,0.6266666650772095
1543306954.365022,9899,0.6800000071525574
1543311966.09363,10199,0.653333306312561
1543317048.244229,10499,0.7599999904632568
1543322087.332766,10799,0.6800000071525574
1543326947.696735,11099,0.7066666483879089
1543331955.143753,11399,0.6800000071525574
1543336878.270405,11699,0.7333333492279053
1543341902.131459,11999,0.6800000071525574
1543346809.250321,12299,0.7733333110809326
1543351781.535711,12599,0.6133333444595337
1543356667.165645,12899,0.7599999904632568
1543361387.55514,13199,0.7333333492279053
1543365801.673255,13499,0.7599999904632568
1543377289.840994,13799,0.7866666913032532
1543381543.986709,14099,0.7733333110809326
1543385788.085569,14399,0.6933333277702332
1543389800.785457,14699,0.7200000286102295
1543393990.518278,14999,0.7599999904632568
1543398250.899277,15299,0.746666669845581
1543402327.52686,15599,0.7333333492279053
1543406515.195625,15899,0.8133333325386047
1543410730.668171,16199,0.800000011920929
1543415096.920263,16499,0.8133333325386047
1543419380.513373,16799,0.7733333110809326
1543423714.248221,17099,0.7200000286102295
1543428009.840743,17399,0.746666669845581
1543432256.492453,17699,0.8399999737739563
1543436387.321716,17999,0.7599999904632568
1543446386.007558,18299,0.800000011920929
1543450706.918416,18599,0.8533333539962769
1543454937.185772,18899,0.8133333325386047
1543459265.833176,19199,0.7866666913032532
1543463689.914956,19499,0.746666669845581
1543468199.911893,19799,0.7733333110809326
1543472546.530251,20099,0.8266666531562805
1543476765.280372,20399,0.8266666531562805
1543480930.012741,20699,0.8266666531562805
1543485335.663645,20999,0.7866666913032532
1543489661.594622,21299,0.8266666531562805
1543494102.98503,21599,0.8533333539962769
1543498594.063438,21899,0.8133333325386047
1543503043.657496,22199,0.8133333325386047
1543507369.101019,22499,0.8399999737739563
1543517902.930988,22799,0.8799999952316284
1543522636.311959,23099,0.8133333325386047
1543527188.755026,23399,0.800000011920929
1543531786.642509,23699,0.8533333539962769
1543536466.763983,23999,0.8133333325386047
1543541123.554728,24299,0.8533333539962769
1543545769.923628,24599,0.8533333539962769
1543550406.48687,24899,0.8133333325386047
1543554916.793244,25199,0.8266666531562805
1543559369.732848,25499,0.800000011920929
1543563809.75228,25799,0.8799999952316284
1543568317.479987,26099,0.8266666531562805
1543572659.026672,26399,0.8933333158493042
1543577067.798168,26699,0.8399999737739563
1543581529.420284,26999,0.8266666531562805
1543591977.001804,27299,0.8133333325386047
1543596435.94774,27599,0.8799999952316284
1543600801.275158,27899,0.8666666746139526
1543605243.985046,28199,0.8399999737739563
1543609667.951079,28499,0.8933333158493042
1543614201.681394,28799,0.8666666746139526
1543618774.511221,29099,0.8399999737739563
1543623297.936815,29399,0.8399999737739563
1543627672.074291,29699,0.8266666531562805
1543632059.07452,29999,0.8399999737739563
1543636406.927931,30299,0.8533333539962769
1543640643.346523,30599,0.8666666746139526
1543644679.407454,30899,0.800000011920929
1543648944.072135,31199,0.7866666913032532
1543653297.150967,31499,0.8799999952316284
1543662758.65208,31799,0.8799999952316284
1543667259.044998,32099,0.9066666960716248
1543671872.965961,32399,0.8799999952316284
1543676592.093021,32699,0.8933333158493042
1543681279.121644,32999,0.8933333158493042
1543685881.945067,33299,0.8399999737739563
1543690375.328816,33599,0.8666666746139526
1543694851.000623,33899,0.8399999737739563
1543699405.185063,34199,0.8266666531562805
1543703810.024236,34499,0.8399999737739563
1543708314.324755,34799,0.8666666746139526
1543712659.867061,35099,0.8399999737739563
1543716934.69341,35399,0.8266666531562805
1543721451.21754,35699,0.800000011920929
1543726266.085134,35999,0.8933333158493042
