Wall time,Step,Value
1543172225.857606,0,0.0
1543174857.159063,299,0.06666667014360428
1543177827.866514,599,0.06666667014360428
1543181132.926993,899,0.13333334028720856
1543184686.894979,1199,0.20000000298023224
1543188124.722579,1499,0.2266666740179062
1543191310.27644,1799,0.23999999463558197
1543194503.27045,2099,0.2266666740179062
1543197681.749431,2399,0.14666666090488434
1543200993.93477,2699,0.2800000011920929
1543204170.958858,2999,0.2666666805744171
1543207530.271539,3299,0.36000001430511475
1543210872.021576,3599,0.2666666805744171
1543214298.594614,3899,0.2666666805744171
1543217844.683587,4199,0.20000000298023224
1543221321.095557,4499,0.3333333432674408
1543230355.311788,4799,0.36000001430511475
1543234437.163248,5099,0.18666666746139526
1543239364.487376,5399,0.3333333432674408
1543244259.080607,5699,0.3199999928474426
1543248313.782359,5999,0.2800000011920929
1543252088.428231,6299,0.2933333218097687
1543256126.266271,6599,0.2933333218097687
1543259855.089849,6899,0.3199999928474426
1543263751.878546,7199,0.2666666805744171
1543267767.141607,7499,0.2933333218097687
1543271854.039169,7799,0.2800000011920929
1543275666.062147,8099,0.25333333015441895
1543279357.450483,8399,0.20000000298023224
1543283306.393322,8699,0.3866666555404663
1543287168.760407,8999,0.3466666638851166
1543295473.908954,9299,0.3199999928474426
1543299248.99448,9599,0.3466666638851166
1543303032.832134,9899,0.3333333432674408
1543306873.976983,10199,0.41333332657814026
1543311437.785077,10499,0.41333332657814026
1543316027.459701,10799,0.3866666555404663
1543320810.795343,11099,0.5733333230018616
1543325488.630101,11399,0.4933333396911621
1543330245.945052,11699,0.47999998927116394
1543334749.500513,11999,0.5866666436195374
1543339404.552405,12299,0.5199999809265137
1543344073.420726,12599,0.54666668176651
1543348723.227455,12899,0.5199999809265137
1543353325.159971,13199,0.5600000023841858
1543357888.919185,13499,0.5733333230018616
1543368571.250572,13799,0.6266666650772095
1543373013.932692,14099,0.5866666436195374
1543377657.076286,14399,0.5733333230018616
1543381582.634544,14699,0.6399999856948853
1543385409.920591,14999,0.4933333396911621
1543389185.870874,15299,0.6800000071525574
1543393063.581838,15599,0.6800000071525574
1543397041.718239,15899,0.6266666650772095
1543400935.53339,16199,0.6399999856948853
1543404818.184416,16499,0.6399999856948853
1543408593.639592,16799,0.6800000071525574
1543412369.993991,17099,0.6666666865348816
1543416225.375492,17399,0.6000000238418579
1543420275.774004,17699,0.6800000071525574
1543424343.900526,17999,0.6800000071525574
1543433566.663529,18299,0.6800000071525574
1543437320.678362,18599,0.7066666483879089
1543441278.977356,18899,0.746666669845581
1543445393.524743,19199,0.7066666483879089
1543449406.436884,19499,0.6800000071525574
1543453493.589969,19799,0.6666666865348816
1543457573.490942,20099,0.6800000071525574
1543461660.94401,20399,0.7733333110809326
1543465854.400741,20699,0.7066666483879089
1543470382.628204,20999,0.7333333492279053
1543474689.268885,21299,0.746666669845581
1543478896.305552,21599,0.7066666483879089
1543482878.79094,21899,0.7733333110809326
1543486841.593855,22199,0.7599999904632568
1543491009.967875,22499,0.7333333492279053
1543500250.023107,22799,0.7333333492279053
1543504383.561338,23099,0.6800000071525574
1543508480.132624,23399,0.7333333492279053
1543512675.715236,23699,0.746666669845581
1543517069.801514,23999,0.7733333110809326
1543521309.035496,24299,0.7066666483879089
1543525371.633198,24599,0.7733333110809326
1543529703.316622,24899,0.7599999904632568
1543534033.233494,25199,0.7866666913032532
1543538431.598693,25499,0.800000011920929
1543542761.688324,25799,0.7599999904632568
1543547095.129935,26099,0.8133333325386047
1543551604.624773,26399,0.8133333325386047
1543555942.414426,26699,0.746666669845581
1543560536.668503,26999,0.8266666531562805
1543571437.67163,27299,0.8666666746139526
1543575642.532731,27599,0.8666666746139526
1543579996.256718,27899,0.800000011920929
1543584478.979133,28199,0.800000011920929
1543588853.772395,28499,0.7733333110809326
1543593405.946613,28799,0.800000011920929
1543597865.188309,29099,0.8533333539962769
1543602498.50512,29399,0.8399999737739563
1543606887.907004,29699,0.7866666913032532
1543611348.551321,29999,0.8399999737739563
1543615779.354759,30299,0.8133333325386047
1543620310.127797,30599,0.8533333539962769
1543624764.833965,30899,0.8133333325386047
1543629521.745161,31199,0.800000011920929
1543634077.093015,31499,0.8399999737739563
1543643400.027653,31799,0.7866666913032532
1543647862.615434,32099,0.8266666531562805
1543652483.724002,32399,0.8399999737739563
1543656890.156737,32699,0.8266666531562805
1543661344.613169,32999,0.7866666913032532
1543665892.509313,33299,0.8799999952316284
1543670493.231732,33599,0.8533333539962769
1543675074.889483,33899,0.8799999952316284
1543679468.069436,34199,0.8266666531562805
1543683959.08955,34499,0.8266666531562805
1543688357.976594,34799,0.8266666531562805
1543692871.429846,35099,0.8666666746139526
1543697086.134279,35399,0.8133333325386047
1543701361.196519,35699,0.8133333325386047
1543705740.867006,35999,0.8666666746139526
1543715354.488278,36299,0.8266666531562805
1543719590.560629,36599,0.8266666531562805
1543724003.303194,36899,0.8666666746139526
1543728504.846435,37199,0.8266666531562805
