Wall time,Step,Value
1539438111.977575,0,0.0
1539441023.63585,299,0.15584415197372437
1539445435.720184,599,0.1818181872367859
1539449911.433566,899,0.23376622796058655
1539454443.007088,1199,0.15584415197372437
1539459022.000543,1499,0.1428571492433548
1539463620.407158,1799,0.23376622796058655
1539468020.76822,2099,0.23376622796058655
1539472416.03589,2399,0.23376622796058655
1539476855.007661,2699,0.23376622796058655
1539481275.018828,2999,0.22077922523021698
1539485724.044458,3299,0.22077922523021698
1539490182.500922,3599,0.29870128631591797
1539494667.871913,3899,0.25974026322364807
1539499120.996426,4199,0.3246753215789795
1539503559.006085,4499,0.37662336230278015
1539510695.689872,4799,0.37662336230278015
1539515493.626768,5099,0.29870128631591797
1539520515.023989,5399,0.16883116960525513
1539525343.400109,5699,0.31168830394744873
1539530008.453998,5999,0.25974026322364807
1539534678.480003,6299,0.2857142984867096
1539539260.028134,6599,0.27272728085517883
1539543761.288097,6899,0.27272728085517883
1539548177.80616,7199,0.27272728085517883
1539552544.243652,7499,0.27272728085517883
1539556451.923022,7799,0.12987013161182404
1539560298.689991,8099,0.2467532455921173
1539564039.306972,8399,0.2467532455921173
1539567702.299619,8699,0.15584415197372437
1539571413.824712,8999,0.20779220759868622
1539577386.433338,9299,0.22077922523021698
1539580858.587646,9599,0.22077922523021698
1539584510.393767,9899,0.25974026322364807
1539588134.288916,10199,0.29870128631591797
1539591774.842852,10499,0.3636363744735718
1539595349.003298,10799,0.33766233921051025
1539599016.610052,11099,0.19480518996715546
1539602775.623628,11399,0.2467532455921173
1539606513.384347,11699,0.27272728085517883
1539610537.401242,11999,0.350649356842041
1539614796.347631,12299,0.5064935088157654
1539619527.490971,12599,0.5974025726318359
1539624270.526071,12899,0.5454545617103577
1539629047.160081,13199,0.5454545617103577
1539633854.810001,13499,0.6363636255264282
1539641794.372145,13799,0.701298713684082
1539646599.434867,14099,0.6753246784210205
1539651539.169886,14399,0.6883116960525513
1539656299.426738,14699,0.6753246784210205
1539660750.97339,14999,0.6753246784210205
1539665201.130342,15299,0.7272727489471436
1539669849.800234,15599,0.7142857313156128
1539674507.096238,15899,0.7532467246055603
1539679399.995846,16199,0.7272727489471436
1539683976.543723,16499,0.7662337422370911
1539688424.456003,16799,0.7792207598686218
1539692913.799048,17099,0.7402597665786743
1539697504.624151,17399,0.8051947951316833
1539702081.286831,17699,0.7662337422370911
1539706664.658448,17999,0.7662337422370911
1539714172.29272,18299,0.7922077775001526
1539718723.973882,18599,0.8441558480262756
1539723326.903883,18899,0.7922077775001526
1539727945.50003,19199,0.8571428656578064
1539732605.778478,19499,0.8311688303947449
1539737163.088647,19799,0.7662337422370911
1539741442.356611,20099,0.7792207598686218
1539745609.363759,20399,0.8311688303947449
1539749694.996545,20699,0.7922077775001526
1539753746.536833,20999,0.7922077775001526
1539757702.760819,21299,0.7532467246055603
1539761575.493289,21599,0.8051947951316833
1539765501.454368,21899,0.7402597665786743
1539769420.428626,22199,0.8181818127632141
1539773307.806414,22499,0.7922077775001526
1539779881.37528,22799,0.8181818127632141
1539784109.361198,23099,0.8441558480262756
1539788185.88493,23399,0.7792207598686218
1539792361.655626,23699,0.8051947951316833
1539796619.850046,23999,0.7272727489471436
1539800949.963681,24299,0.8051947951316833
1539805256.3541,24599,0.8311688303947449
1539809528.723026,24899,0.8051947951316833
1539813835.72945,25199,0.8701298832893372
1539818162.401961,25499,0.7532467246055603
1539822471.063006,25799,0.8311688303947449
1539826754.894423,26099,0.7532467246055603
1539831030.592544,26399,0.8181818127632141
1539835226.3117,26699,0.8701298832893372
1539839194.233756,26999,0.8181818127632141
1539845870.108063,27299,0.8831169009208679
1539850732.277784,27599,0.7922077775001526
1539855750.398348,27899,0.8181818127632141
1539860711.546091,28199,0.8051947951316833
1539865371.321882,28499,0.8571428656578064
1539870205.797446,28799,0.8181818127632141
1539875266.323394,29099,0.8051947951316833
1539880155.499679,29399,0.8701298832893372
1539885047.362242,29699,0.7792207598686218
1539889685.344966,29999,0.8441558480262756
1539894504.936406,30299,0.8311688303947449
1539899124.558333,30599,0.8181818127632141
1539903847.773092,30899,0.8051947951316833
1539908615.331639,31199,0.8701298832893372
1539912993.924561,31499,0.8571428656578064
1539919751.667572,31799,0.8181818127632141
1539923781.768326,32099,0.8571428656578064
1539927789.472584,32399,0.8441558480262756
1539931709.64518,32699,0.8831169009208679
1539935706.957508,32999,0.8181818127632141
1539939699.618868,33299,0.8311688303947449
1539943608.971395,33599,0.8181818127632141
1539947574.084167,33899,0.8701298832893372
1539951566.58439,34199,0.8701298832893372
1539955561.427385,34499,0.8571428656578064
1539959542.201844,34799,0.8441558480262756
1539963533.069482,35099,0.8181818127632141
1539967471.594758,35399,0.8961039185523987
1539971338.397523,35699,0.8701298832893372
1539975266.172251,35999,0.8311688303947449
1539981586.544779,36299,0.8831169009208679
1539985594.245151,36599,0.8181818127632141
1539989593.850337,36899,0.8571428656578064
1539993651.31727,37199,0.8181818127632141
1539997854.761941,37499,0.8571428656578064
1540001747.610649,37799,0.8441558480262756
1540005949.718493,38099,0.8571428656578064
1540010081.371981,38399,0.8311688303947449
1540014207.174995,38699,0.8181818127632141
1540018428.491815,38999,0.8571428656578064
1540022587.816417,39299,0.8441558480262756
1540026333.220033,39599,0.8441558480262756
1540029909.544837,39899,0.7922077775001526
1540031320.22667,40000,0.8701298832893372
