Wall time,Step,Value
1534972262.211729,0,0.0
1534974121.877812,299,0.2266666740179062
1534976211.932887,599,0.3866666555404663
1534978293.617467,899,0.4266666769981384
1534980370.076747,1199,0.5066666603088379
1534982480.190613,1499,0.6000000238418579
1534984586.074364,1799,0.6266666650772095
1534986666.576668,2099,0.7200000286102295
1534988753.163895,2399,0.7066666483879089
1534990847.102746,2699,0.7066666483879089
1534992941.548897,2999,0.8133333325386047
1534995036.918251,3299,0.7866666913032532
1534997143.233037,3599,0.8266666531562805
1534999233.016059,3899,0.8133333325386047
1535001300.174164,4199,0.9066666960716248
1535003292.25575,4499,0.9066666960716248
1535008194.101159,4799,0.8933333158493042
1535010274.248569,5099,0.9200000166893005
1535012316.912082,5399,0.8933333158493042
1535014400.592426,5699,0.9066666960716248
1535016487.596453,5999,0.9333333373069763
1535018552.473125,6299,0.9333333373069763
1535020620.676471,6599,0.9333333373069763
1535022682.943804,6899,0.9466666579246521
1535024794.434139,7199,0.9466666579246521
1535026885.665123,7499,0.9733333587646484
1535028979.280521,7799,0.9200000166893005
1535031081.403787,8099,0.9599999785423279
1535033152.300025,8399,0.9866666793823242
1535035265.559199,8699,1.0
1535037316.761411,8999,0.9733333587646484
1535042170.091888,9299,0.9733333587646484
1535044214.926322,9599,0.9733333587646484
1535046293.932504,9899,1.0
1535048417.6836,10199,0.9733333587646484
1535050491.937333,10499,0.9866666793823242
1535052600.084471,10799,0.9733333587646484
1535054712.371604,11099,1.0
1535056831.52051,11399,0.9866666793823242
1535058949.75339,11699,0.9866666793823242
1535061035.121072,11999,0.9866666793823242
1535063156.633874,12299,1.0
1535065272.860246,12599,1.0
1535067363.322372,12899,0.9866666793823242
1535069433.72279,13199,0.9866666793823242
1535071493.832494,13499,0.9866666793823242
1535076483.296473,13799,0.9866666793823242
1535078487.046791,14099,1.0
1535080541.871579,14399,0.9866666793823242
1535082618.001605,14699,0.9733333587646484
1535084669.172039,14999,1.0
1535086776.460243,15299,0.9866666793823242
1535088861.416844,15599,0.9866666793823242
1535090963.925273,15899,0.9866666793823242
1535093071.501352,16199,1.0
1535095175.304285,16499,1.0
1535097282.587949,16799,1.0
1535099384.139504,17099,1.0
1535101506.392102,17399,1.0
1535103606.009613,17699,1.0
1535105699.883295,17999,1.0
1535110763.254536,18299,1.0
1535112807.793483,18599,1.0
1535114793.792582,18899,1.0
1535116884.070996,19199,1.0
1535118999.475552,19499,1.0
1535121097.907783,19799,0.9866666793823242
1535123175.020249,20099,1.0
1535125267.823086,20399,1.0
1535127401.959328,20699,1.0
1535129522.648603,20999,1.0
1535131646.863338,21299,1.0
1535133782.963609,21599,1.0
1535135867.033023,21899,1.0
1535137964.359184,22199,1.0
1535140085.571987,22499,1.0
1535145228.805706,22799,0.9866666793823242
1535147367.805836,23099,1.0
1535149412.64663,23399,1.0
1535151404.565202,23699,1.0
1535153507.37486,23999,1.0
1535155626.297558,24299,1.0
1535157727.444755,24599,0.9866666793823242
1535159840.635923,24899,1.0
1535161914.555469,25199,1.0
1535164004.40946,25499,1.0
1535166113.561109,25799,1.0
1535168251.687841,26099,1.0
1535170316.142824,26399,1.0
1535172399.899035,26699,1.0
1535174524.751994,26999,1.0
1535179593.658379,27299,1.0
1535181714.276129,27599,1.0
1535183810.366966,27899,1.0
1535185839.153319,28199,1.0
1535187844.585701,28499,1.0
1535189953.125229,28799,1.0
1535192086.135903,29099,1.0
1535194209.413795,29399,1.0
1535196312.966629,29699,1.0
1535198445.197852,29999,1.0
1535200550.254788,30299,1.0
1535202650.168079,30599,0.9866666793823242
1535204693.937221,30899,1.0
1535206803.888625,31199,1.0
1535208948.258238,31499,1.0
1535214030.368942,31799,1.0
1535216165.753035,32099,1.0
1535218275.311733,32399,1.0
1535220425.350429,32699,1.0
1535222486.108613,32999,1.0
1535224507.076071,33299,1.0
1535226603.807039,33599,1.0
1535228716.501798,33899,1.0
1535230864.809829,34199,1.0
1535232995.714059,34499,1.0
1535235115.820693,34799,1.0
1535237256.298164,35099,1.0
1535239355.536156,35399,1.0
1535241416.063742,35699,1.0
1535243538.332614,35999,1.0
1535248673.930576,36299,1.0
1535250832.582352,36599,1.0
1535252979.166203,36899,1.0
1535255106.52446,37199,1.0
1535257239.301394,37499,1.0
1535259280.559518,37799,1.0
1535261316.828824,38099,1.0
1535263419.109218,38399,1.0
1535265549.270896,38699,1.0
1535267678.42367,38999,1.0
1535269810.874663,39299,1.0
1535271907.47458,39599,1.0
1535274022.326877,39899,1.0
1535276135.856461,40199,1.0
1535278251.730682,40499,1.0
1535283260.365348,40799,1.0
1535285374.56537,41099,1.0
1535287491.323852,41399,1.0
1535289623.109851,41699,1.0
1535291750.234138,41999,1.0
1535293895.218398,42299,1.0
1535295960.051294,42599,1.0
1535297963.147473,42899,1.0
1535300092.991834,43199,1.0
1535302227.373414,43499,1.0
1535304316.310143,43799,1.0
1535306401.367581,44099,1.0
1535308520.451056,44399,1.0
1535310660.47115,44699,1.0
1535312779.019313,44999,1.0
1535317919.981503,45299,1.0
1535320040.525203,45599,1.0
1535322111.668001,45899,1.0
1535324188.959431,46199,1.0
1535326323.993815,46499,1.0
1535328460.975413,46799,1.0
1535330604.634716,47099,1.0
1535332655.389296,47399,1.0
1535334667.234637,47699,1.0
1535336803.100441,47999,1.0
1535338918.56061,48299,1.0
1535341044.48855,48599,1.0
1535343151.296861,48899,1.0
1535345301.499859,49199,1.0
1535347447.212169,49499,1.0
1535352562.219969,49799,1.0
1535354713.292374,50099,1.0
1535356845.396873,50399,1.0
1535358989.334593,50699,1.0
1535361099.358697,50999,1.0
1535363205.885137,51299,1.0
1535365325.033801,51599,1.0
1535367437.112203,51899,1.0
1535369493.781031,52199,1.0
1535371497.512953,52499,1.0
