Wall time,Step,Value
1539418770.898754,0,0.0
1539422742.168714,299,0.07999999821186066
1539427754.952463,599,0.09333333373069763
1539433112.873339,899,0.1733333319425583
1539438404.493417,1199,0.2133333384990692
1539443646.257497,1499,0.20000000298023224
1539449036.226962,1799,0.2133333384990692
1539454432.131028,2099,0.25333333015441895
1539459918.406651,2399,0.2133333384990692
1539465409.887627,2699,0.2266666740179062
1539470989.474042,2999,0.2666666805744171
1539476467.863251,3299,0.2133333384990692
1539482158.866715,3599,0.2933333218097687
1539487905.567909,3899,0.2266666740179062
1539493465.872012,4199,0.2800000011920929
1539499356.333213,4499,0.2666666805744171
1539511395.40462,4799,0.2933333218097687
1539517284.244074,5099,0.13333334028720856
1539523950.838444,5399,0.2933333218097687
1539530593.008583,5699,0.2266666740179062
1539537319.17838,5999,0.20000000298023224
1539543706.467579,6299,0.30666667222976685
1539550153.993619,6599,0.3466666638851166
1539556534.382597,6899,0.4000000059604645
1539562924.492859,7199,0.47999998927116394
1539569372.343499,7499,0.4533333480358124
1539575536.66415,7799,0.4933333396911621
1539581931.587587,8099,0.4399999976158142
1539588322.21669,8399,0.4399999976158142
1539593561.453558,8699,0.47999998927116394
1539598851.325257,8999,0.46666666865348816
1539608418.03311,9299,0.6133333444595337
1539613502.65318,9599,0.6266666650772095
1539618764.093075,9899,0.7200000286102295
1539624167.476834,10199,0.7599999904632568
1539629577.86231,10499,0.7200000286102295
1539634912.636249,10799,0.7733333110809326
1539640154.305054,11099,0.7733333110809326
1539645588.402376,11399,0.8133333325386047
1539651016.844355,11699,0.8266666531562805
1539656541.754155,11999,0.7599999904632568
1539662017.972968,12299,0.8266666531562805
1539667478.521681,12599,0.8266666531562805
1539672984.659611,12899,0.8266666531562805
1539678336.666808,13199,0.8666666746139526
1539683631.015806,13499,0.8266666531562805
1539693036.083421,13799,0.800000011920929
1539698219.811416,14099,0.8533333539962769
1539703477.730489,14399,0.8533333539962769
1539708670.715998,14699,0.8533333539962769
1539713904.659778,14999,0.8133333325386047
1539719184.462425,15299,0.8399999737739563
1539724437.755465,15599,0.8666666746139526
1539729837.688638,15899,0.9200000166893005
1539735147.943425,16199,0.8666666746139526
1539740447.829817,16499,0.8933333158493042
1539745749.682659,16799,0.8799999952316284
1539751168.988562,17099,0.8399999737739563
1539756434.220551,17399,0.8399999737739563
1539761761.857699,17699,0.9200000166893005
1539767105.521205,17999,0.8666666746139526
1539776476.746955,18299,0.8933333158493042
1539781843.622066,18599,0.9066666960716248
1539787212.458341,18899,0.9066666960716248
1539792644.357492,19199,0.9066666960716248
1539797982.879728,19499,0.8933333158493042
1539803416.202922,19799,0.8666666746139526
1539808763.130398,20099,0.8266666531562805
1539814112.782707,20399,0.9066666960716248
1539819473.150379,20699,0.9200000166893005
1539824936.372901,20999,0.8666666746139526
1539830349.548033,21299,0.9200000166893005
1539835677.895125,21599,0.9200000166893005
1539840977.10545,21899,0.9066666960716248
1539846383.579507,22199,0.8933333158493042
1539851725.683934,22499,0.9200000166893005
1539861022.674405,22799,0.8933333158493042
1539866525.042586,23099,0.9066666960716248
1539871893.169546,23399,0.9066666960716248
1539877260.367996,23699,0.9333333373069763
1539882660.384944,23999,0.8933333158493042
1539887931.58629,24299,0.9066666960716248
1539893376.909402,24599,0.8933333158493042
1539898825.800521,24899,0.8666666746139526
1539904292.699126,25199,0.8666666746139526
1539909644.754126,25499,0.9333333373069763
1539914983.262342,25799,0.9200000166893005
1539920513.203132,26099,0.9066666960716248
1539925882.516132,26399,0.9333333373069763
1539931400.98986,26699,0.9200000166893005
1539936822.129383,26999,0.9200000166893005
1539946445.120181,27299,0.9466666579246521
1539951555.826436,27599,0.9200000166893005
1539957013.535502,27899,0.9200000166893005
1539962460.025939,28199,0.8799999952316284
1539967814.505247,28499,0.8666666746139526
1539973301.312058,28799,0.9200000166893005
1539978732.986436,29099,0.9066666960716248
1539984139.869063,29399,0.9066666960716248
1539989491.661005,29699,0.8933333158493042
1539995019.223216,29999,0.9200000166893005
1540000364.74605,30299,0.8799999952316284
1540005862.853584,30599,0.9200000166893005
1540011328.202625,30899,0.8933333158493042
1540016811.636717,31199,0.9066666960716248
1540022276.697821,31499,0.9066666960716248
1540032056.425527,31799,0.8933333158493042
1540037419.058374,32099,0.9200000166893005
1540042811.608651,32399,0.9333333373069763
1540048184.45377,32699,0.9200000166893005
