Wall time,Step,Value
1538932576.827292,0,0.0
1538932874.45375,299,0.0
1538934555.545565,599,0.0
1538937625.536364,899,0.09090909361839294
1538941363.045789,1199,0.15584415197372437
1538945316.550951,1499,0.23376622796058655
1538949323.677693,1799,0.23376622796058655
1538953302.78549,2099,0.22077922523021698
1538957242.177681,2399,0.2467532455921173
1538961200.017973,2699,0.20779220759868622
1538965169.735883,2999,0.27272728085517883
1538969165.761745,3299,0.25974026322364807
1538973215.655883,3599,0.2467532455921173
1538977296.148749,3899,0.23376622796058655
1538981360.961008,4199,0.29870128631591797
1538985463.601684,4499,0.29870128631591797
1538993255.373042,4799,0.29870128631591797
1538997418.183068,5099,0.3246753215789795
1539001577.690738,5399,0.350649356842041
1539005728.089787,5699,0.2857142984867096
1539009887.772616,5999,0.2467532455921173
1539014055.650357,6299,0.25974026322364807
1539018248.818103,6599,0.29870128631591797
1539022326.554644,6899,0.2467532455921173
1539026482.51673,7199,0.29870128631591797
1539030699.56842,7499,0.2467532455921173
1539034899.897816,7799,0.2857142984867096
1539039155.648912,8099,0.23376622796058655
1539043379.380173,8399,0.2857142984867096
1539047622.227321,8699,0.29870128631591797
1539051821.365916,8999,0.29870128631591797
1539059737.999713,9299,0.2857142984867096
1539063913.891008,9599,0.31168830394744873
1539068108.683959,9899,0.2857142984867096
1539072319.007665,10199,0.31168830394744873
1539074598.792341,10499,0.33766233921051025
1539076883.46771,10799,0.31168830394744873
1539079162.828229,11099,0.33766233921051025
1539081433.151492,11399,0.29870128631591797
1539083696.872682,11699,0.350649356842041
1539085938.067161,11999,0.27272728085517883
1539088203.329971,12299,0.29870128631591797
1539090480.175268,12599,0.31168830394744873
1539092763.478016,12899,0.2857142984867096
1539095035.208185,13199,0.3246753215789795
1539097314.968388,13499,0.350649356842041
1539101542.279162,13799,0.2857142984867096
1539103679.874513,14099,0.3246753215789795
1539105824.28385,14399,0.2857142984867096
1539107893.09684,14699,0.29870128631591797
1539109892.948665,14999,0.31168830394744873
1539111804.121411,15299,0.31168830394744873
1539113714.580429,15599,0.2857142984867096
1539115624.83335,15899,0.3246753215789795
1539117529.455026,16199,0.27272728085517883
1539119423.489364,16499,0.2857142984867096
1539121338.355954,16799,0.3246753215789795
1539123252.229477,17099,0.37662336230278015
1539125152.415296,17399,0.3896103799343109
1539127050.89762,17699,0.3246753215789795
1539128945.697431,17999,0.33766233921051025
1539132684.087148,18299,0.37662336230278015
1539134577.739477,18599,0.31168830394744873
1539136469.29819,18899,0.2857142984867096
1539138370.110049,19199,0.33766233921051025
1539140259.559226,19499,0.3636363744735718
1539142154.289311,19799,0.350649356842041
1539144035.627151,20099,0.3246753215789795
1539145925.382269,20399,0.3636363744735718
1539147804.674744,20699,0.3636363744735718
1539149672.064035,20999,0.3246753215789795
1539151575.766036,21299,0.4285714328289032
1539153465.412779,21599,0.37662336230278015
1539155367.624624,21899,0.4285714328289032
1539157265.60693,22199,0.37662336230278015
1539159164.78182,22499,0.3636363744735718
1539162938.395943,22799,0.4285714328289032
1539164807.321105,23099,0.37662336230278015
1539166688.085165,23399,0.4285714328289032
1539168575.890335,23699,0.3636363744735718
1539170464.930247,23999,0.37662336230278015
1539172349.026116,24299,0.4025973975658417
1539174236.852235,24599,0.4025973975658417
1539176132.634936,24899,0.37662336230278015
1539178018.854795,25199,0.41558441519737244
1539179872.39717,25499,0.3896103799343109
1539181755.021183,25799,0.4285714328289032
1539183644.89361,26099,0.4285714328289032
1539185518.413918,26399,0.4025973975658417
1539187405.233414,26699,0.4285714328289032
1539189274.521885,26999,0.37662336230278015
1539193053.426773,27299,0.48051947355270386
1539194924.778796,27599,0.44155845046043396
1539196813.570917,27899,0.4025973975658417
1539198693.676027,28199,0.4025973975658417
1539200579.265338,28499,0.44155845046043396
1539202476.477131,28799,0.4675324559211731
1539204360.054377,29099,0.4545454680919647
1539206249.55968,29399,0.44155845046043396
1539208141.068801,29699,0.4285714328289032
1539210005.312707,29999,0.4285714328289032
1539211909.835656,30299,0.44155845046043396
1539213814.245569,30599,0.44155845046043396
1539215712.461436,30899,0.4545454680919647
1539217583.535714,31199,0.4675324559211731
1539219483.619024,31499,0.4545454680919647
1539223310.970366,31799,0.4675324559211731
1539225186.201224,32099,0.44155845046043396
1539227089.540575,32399,0.4285714328289032
1539228989.260491,32699,0.4285714328289032
1539230877.125619,32999,0.44155845046043396
1539232781.038794,33299,0.4675324559211731
1539234680.475045,33599,0.4675324559211731
1539236583.485195,33899,0.4545454680919647
1539238472.814676,34199,0.44155845046043396
1539240350.748621,34499,0.4545454680919647
1539242251.232482,34799,0.4285714328289032
1539244141.499952,35099,0.4285714328289032
1539246054.743214,35399,0.44155845046043396
1539247955.396668,35699,0.4545454680919647
1539249855.23042,35999,0.44155845046043396
1539253647.181558,36299,0.4675324559211731
1539255522.401701,36599,0.4675324559211731
1539257428.27956,36899,0.4675324559211731
1539259332.615515,37199,0.48051947355270386
1539261234.232588,37499,0.48051947355270386
1539263132.615294,37799,0.48051947355270386
1539265034.620925,38099,0.48051947355270386
1539266859.677113,38399,0.48051947355270386
1539268641.239593,38699,0.4285714328289032
1539270397.45948,38999,0.4675324559211731
1539272154.873631,39299,0.4935064911842346
1539273915.018945,39599,0.4935064911842346
1539275666.852952,39899,0.4935064911842346
1539276443.175302,40000,0.48051947355270386
