Wall time,Step,Value
1540057606.419045,0,0.0
1540059591.166152,299,0.11688311398029327
1540063640.144604,599,0.19480518996715546
1540067819.453347,899,0.20779220759868622
1540071869.732518,1199,0.22077922523021698
1540075965.860832,1499,0.19480518996715546
1540080091.772264,1799,0.22077922523021698
1540084117.513887,2099,0.25974026322364807
1540088159.891985,2399,0.19480518996715546
1540092182.048245,2699,0.1818181872367859
1540096209.56801,2999,0.350649356842041
1540100188.429168,3299,0.16883116960525513
1540104182.468245,3599,0.2467532455921173
1540108396.386836,3899,0.27272728085517883
1540112629.939153,4199,0.25974026322364807
1540117005.026792,4499,0.27272728085517883
1540123718.651921,4799,0.41558441519737244
1540127963.878361,5099,0.29870128631591797
1540132222.044251,5399,0.3636363744735718
1540136662.654407,5699,0.2857142984867096
1540141130.811467,5999,0.2467532455921173
1540145603.207864,6299,0.3636363744735718
1540150091.585131,6599,0.37662336230278015
1540154576.208088,6899,0.3896103799343109
1540159046.028436,7199,0.29870128631591797
1540163554.35675,7499,0.29870128631591797
1540168051.30027,7799,0.29870128631591797
1540172432.215853,8099,0.33766233921051025
1540176724.560038,8399,0.350649356842041
1540181018.325142,8699,0.350649356842041
1540185327.037782,8999,0.31168830394744873
1540192636.992481,9299,0.350649356842041
1540197324.197846,9599,0.29870128631591797
1540202204.7696,9899,0.3246753215789795
1540207182.184335,10199,0.350649356842041
1540212231.429371,10499,0.33766233921051025
1540217458.992714,10799,0.37662336230278015
1540222585.15954,11099,0.37662336230278015
1540227588.280628,11399,0.3896103799343109
1540232321.794856,11699,0.41558441519737244
1540237084.485222,11999,0.37662336230278015
1540241773.446271,12299,0.44155845046043396
1540246491.70621,12599,0.37662336230278015
1540251199.603494,12899,0.41558441519737244
1540255975.483628,13199,0.33766233921051025
1540260669.060718,13499,0.37662336230278015
1540267750.753596,13799,0.37662336230278015
1540272070.646515,14099,0.4025973975658417
1540276428.754994,14399,0.41558441519737244
1540280980.802322,14699,0.41558441519737244
1540285753.600939,14999,0.37662336230278015
1540290487.298437,15299,0.4545454680919647
1540294827.664541,15599,0.4025973975658417
1540299113.878604,15899,0.44155845046043396
1540303438.663322,16199,0.4025973975658417
1540307745.181417,16499,0.3636363744735718
1540312372.179345,16799,0.4545454680919647
1540317094.843513,17099,0.37662336230278015
1540321779.748202,17399,0.3896103799343109
1540326523.163155,17699,0.3896103799343109
1540331290.891335,17999,0.44155845046043396
1540338743.781868,18299,0.4025973975658417
1540343464.7372,18599,0.48051947355270386
1540348198.092426,18899,0.3896103799343109
1540352717.683239,19199,0.4545454680919647
1540357057.397013,19499,0.44155845046043396
1540361451.930088,19799,0.3896103799343109
1540365797.430725,20099,0.4285714328289032
1540370413.118351,20399,0.41558441519737244
1540375187.782132,20699,0.4285714328289032
1540379961.591353,20999,0.41558441519737244
1540384728.546592,21299,0.4025973975658417
1540389790.283313,21599,0.41558441519737244
1540394815.350018,21899,0.44155845046043396
1540399948.658305,22199,0.4285714328289032
1540405090.969487,22499,0.4285714328289032
1540413268.593154,22799,0.41558441519737244
1540418371.812316,23099,0.44155845046043396
1540423553.848899,23399,0.41558441519737244
1540428331.480963,23699,0.4285714328289032
1540433101.972037,23999,0.4285714328289032
1540437837.921249,24299,0.3896103799343109
1540442570.77469,24599,0.4675324559211731
1540447305.90831,24899,0.44155845046043396
1540452245.837306,25199,0.3896103799343109
1540457178.730032,25499,0.44155845046043396
1540462153.554729,25799,0.4025973975658417
1540467109.611949,26099,0.48051947355270386
1540472069.480009,26399,0.4285714328289032
1540477022.452717,26699,0.5064935088157654
1540481972.715995,26999,0.4545454680919647
1540489669.379282,27299,0.48051947355270386
1540494459.77555,27599,0.5064935088157654
1540499310.894836,27899,0.4545454680919647
1540504158.719879,28199,0.44155845046043396
1540509060.543519,28499,0.4285714328289032
1540513936.266214,28799,0.4675324559211731
1540518745.419577,29099,0.4545454680919647
1540523219.597684,29399,0.48051947355270386
1540527688.10191,29699,0.4675324559211731
1540532177.032566,29999,0.4025973975658417
1540536633.982665,30299,0.4545454680919647
1540541123.199068,30599,0.4545454680919647
1540545603.33928,30899,0.4285714328289032
1540549905.564899,31199,0.48051947355270386
1540554109.967342,31499,0.48051947355270386
1540561314.588475,31799,0.4935064911842346
1540565863.151537,32099,0.4675324559211731
1540570362.443572,32399,0.4675324559211731
1540574815.701465,32699,0.48051947355270386
1540579291.441139,32999,0.4675324559211731
1540583767.011188,33299,0.4935064911842346
1540587988.730678,33599,0.4545454680919647
1540592201.317646,33899,0.4935064911842346
1540596436.819508,34199,0.44155845046043396
1540600893.638658,34499,0.44155845046043396
1540605459.912315,34799,0.48051947355270386
1540609995.980492,35099,0.5194805264472961
1540614475.345476,35399,0.4935064911842346
1540618962.51315,35699,0.5454545617103577
1540623505.283429,35999,0.5194805264472961
1540630505.039097,36299,0.6233766078948975
1540634999.452298,36599,0.6623376607894897
1540639517.628611,36899,0.6883116960525513
1540644062.410675,37199,0.6883116960525513
1540648746.031504,37499,0.6623376607894897
1540653608.270533,37799,0.6883116960525513
1540658334.074787,38099,0.6883116960525513
1540662711.401821,38399,0.6623376607894897
1540667412.066023,38699,0.701298713684082
1540672094.499058,38999,0.6753246784210205
1540676451.461066,39299,0.6753246784210205
1540680522.06939,39599,0.7272727489471436
1540684567.662546,39899,0.6883116960525513
1540686179.763876,40000,0.701298713684082
